\relax 
\providecommand\hyper@newdestlabel[2]{}
\catcode `"\active 
\providecommand\HyperFirstAtBeginDocument{\AtBeginDocument}
\HyperFirstAtBeginDocument{\ifx\hyper@anchor\@undefined
\global\let\oldcontentsline\contentsline
\gdef\contentsline#1#2#3#4{\oldcontentsline{#1}{#2}{#3}}
\global\let\oldnewlabel\newlabel
\gdef\newlabel#1#2{\newlabelxx{#1}#2}
\gdef\newlabelxx#1#2#3#4#5#6{\oldnewlabel{#1}{{#2}{#3}}}
\AtEndDocument{\ifx\hyper@anchor\@undefined
\let\contentsline\oldcontentsline
\let\newlabel\oldnewlabel
\fi}
\fi}
\global\let\hyper@last\relax 
\gdef\HyperFirstAtBeginDocument#1{#1}
\providecommand\HyField@AuxAddToFields[1]{}
\providecommand\HyField@AuxAddToCoFields[2]{}
\providecommand \oddpage@label [2]{}
\select@language{polish}
\@writefile{toc}{\select@language{polish}}
\@writefile{lof}{\select@language{polish}}
\@writefile{lot}{\select@language{polish}}
\@writefile{toc}{\contentsline {section}{\numberline {1}O oprogramowaniu}{1}{section.1}}
\@writefile{toc}{\contentsline {subsection}{\numberline {1.1}Funkcjonalno\IeC {\'s}ci aplikacji}{1}{subsection.1.1}}
\@writefile{toc}{\contentsline {section}{\numberline {2}Widoki}{1}{section.2}}
\@writefile{toc}{\contentsline {subsection}{\numberline {2.1}Strona g\IeC {\l }\IeC {\'o}wna}{1}{subsection.2.1}}
\@writefile{toc}{\contentsline {subsection}{\numberline {2.2}Przyk\IeC {\l }ady}{1}{subsection.2.2}}
\@writefile{toc}{\contentsline {subsection}{\numberline {2.3}Generator}{1}{subsection.2.3}}
\newlabel{sec:gen}{{2.3}{1}{Generator}{subsection.2.3}{}}
\@writefile{lof}{\contentsline {figure}{\numberline {1}{\ignorespaces Widok generatora z ponumerowanymi elementami interfejsu\relax }}{2}{figure.caption.1}}
\@writefile{lof}{\contentsline {figure}{\numberline {2}{\ignorespaces Panel styli\relax }}{3}{figure.caption.2}}
\@writefile{lof}{\contentsline {figure}{\numberline {3}{\ignorespaces Wygenerowanie unikalnego linku\relax }}{3}{figure.caption.3}}
\providecommand*\caption@xref[2]{\@setref\relax\@undefined{#1}}
\newlabel{fig:link_view}{{3}{3}{Wygenerowanie unikalnego linku\relax }{figure.caption.3}{}}
\@writefile{toc}{\contentsline {subsubsection}{\numberline {2.3.1}B\IeC {\l }\IeC {\k e}dy generacji}{3}{subsubsection.2.3.1}}
\@writefile{lof}{\contentsline {figure}{\numberline {4}{\ignorespaces B\IeC {\l }\IeC {\k a}d w definicji struktury  Niepoprawny znak zosta\IeC {\l } wykryty na 17 pozycji\relax }}{4}{figure.caption.4}}
\newlabel{LastPage}{{}{4}{}{page.4}{}}
\xdef\lastpage@lastpage{4}
\xdef\lastpage@lastpageHy{4}
