\select@language {polish}
\contentsline {section}{\numberline {1}Wst\IeC {\k e}p}{1}{section.1}
\contentsline {subsection}{\numberline {1.1}S\IeC {\l }ownik poj\IeC {\k e}\IeC {\'c}}{1}{subsection.1.1}
\contentsline {subsection}{\numberline {1.2}Definicja j\IeC {\k e}zyka}{2}{subsection.1.2}
\contentsline {subsection}{\numberline {1.3}Przyk\IeC {\l }ady zastosowania j\IeC {\k e}zyka}{3}{subsection.1.3}
