\select@language {polish}
\contentsline {section}{\numberline {1}Wst\IeC {\k e}p}{2}{section.1}
\contentsline {subsection}{\numberline {1.1}S\IeC {\l }ownik poj\IeC {\k e}\IeC {\'c}}{2}{subsection.1.1}
\contentsline {section}{\numberline {2}Harmonogram}{3}{section.2}
\contentsline {section}{\numberline {3}Specyfikacja biznesowa}{4}{section.3}
\contentsline {section}{\numberline {4}Specyfikacja techniczna }{5}{section.4}
\contentsline {section}{\numberline {5}Raport z test\IeC {\'o}w}{5}{section.5}
\contentsline {subsection}{\numberline {5.1}Spos\IeC {\'o}b przeprowadzenia}{5}{subsection.5.1}
\contentsline {subsection}{\numberline {5.2}Testy akceptacyjne}{6}{subsection.5.2}
\contentsline {paragraph}{Test 1}{6}{section*.6}
\contentsline {paragraph}{Test 2}{6}{section*.8}
\contentsline {paragraph}{Test 3}{7}{section*.10}
\contentsline {paragraph}{Test 4}{7}{section*.12}
\contentsline {paragraph}{Test 5}{8}{section*.14}
\contentsline {subsection}{\numberline {5.3}Testy na u\IeC {\.z}ytkownikach}{8}{subsection.5.3}
