\BOOKMARK [1][-]{section.1}{Wstep}{}% 1
\BOOKMARK [2][-]{subsection.1.1}{S\233ownik pojec}{section.1}% 2
\BOOKMARK [1][-]{section.2}{Harmonogram}{}% 3
\BOOKMARK [1][-]{section.3}{Specyfikacja biznesowa}{}% 4
\BOOKMARK [1][-]{section.4}{Specyfikacja techniczna }{}% 5
\BOOKMARK [1][-]{section.5}{Raport z test\363w}{}% 6
\BOOKMARK [2][-]{subsection.5.1}{Spos\363b przeprowadzenia}{section.5}% 7
\BOOKMARK [2][-]{subsection.5.2}{Testy akceptacyjne}{section.5}% 8
\BOOKMARK [2][-]{subsection.5.3}{Testy na uzytkownikach}{section.5}% 9
