\relax 
\providecommand\hyper@newdestlabel[2]{}
\catcode `"\active 
\providecommand\HyperFirstAtBeginDocument{\AtBeginDocument}
\HyperFirstAtBeginDocument{\ifx\hyper@anchor\@undefined
\global\let\oldcontentsline\contentsline
\gdef\contentsline#1#2#3#4{\oldcontentsline{#1}{#2}{#3}}
\global\let\oldnewlabel\newlabel
\gdef\newlabel#1#2{\newlabelxx{#1}#2}
\gdef\newlabelxx#1#2#3#4#5#6{\oldnewlabel{#1}{{#2}{#3}}}
\AtEndDocument{\ifx\hyper@anchor\@undefined
\let\contentsline\oldcontentsline
\let\newlabel\oldnewlabel
\fi}
\fi}
\global\let\hyper@last\relax 
\gdef\HyperFirstAtBeginDocument#1{#1}
\providecommand\HyField@AuxAddToFields[1]{}
\providecommand\HyField@AuxAddToCoFields[2]{}
\providecommand \oddpage@label [2]{}
\select@language{polish}
\@writefile{toc}{\select@language{polish}}
\@writefile{lof}{\select@language{polish}}
\@writefile{lot}{\select@language{polish}}
\@writefile{toc}{\contentsline {section}{\numberline {1}Wst\IeC {\k e}p}{2}{section.1}}
\@writefile{toc}{\contentsline {subsection}{\numberline {1.1}S\IeC {\l }ownik poj\IeC {\k e}\IeC {\'c}}{2}{subsection.1.1}}
\@writefile{toc}{\contentsline {section}{\numberline {2}Harmonogram}{3}{section.2}}
\@writefile{toc}{\contentsline {section}{\numberline {3}Specyfikacja biznesowa}{4}{section.3}}
\@writefile{lot}{\contentsline {table}{\numberline {1}{\ignorespaces Zmiany w analizie biznesowej \relax }}{4}{table.caption.4}}
\@writefile{toc}{\contentsline {section}{\numberline {4}Specyfikacja techniczna }{5}{section.4}}
\@writefile{lot}{\contentsline {table}{\numberline {2}{\ignorespaces Zmiany w specyfikacji technicznej\relax }}{5}{table.caption.5}}
\@writefile{toc}{\contentsline {section}{\numberline {5}Raport z test\IeC {\'o}w}{5}{section.5}}
\@writefile{toc}{\contentsline {subsection}{\numberline {5.1}Spos\IeC {\'o}b przeprowadzenia}{5}{subsection.5.1}}
\@writefile{toc}{\contentsline {subsection}{\numberline {5.2}Testy akceptacyjne}{6}{subsection.5.2}}
\@writefile{toc}{\contentsline {paragraph}{Test 1}{6}{section*.6}}
\@writefile{lof}{\contentsline {figure}{\numberline {1}{\ignorespaces Test nr 1\relax }}{6}{figure.caption.7}}
\@writefile{toc}{\contentsline {paragraph}{Test 2}{6}{section*.8}}
\@writefile{lof}{\contentsline {figure}{\numberline {2}{\ignorespaces Test nr 2\relax }}{7}{figure.caption.9}}
\@writefile{toc}{\contentsline {paragraph}{Test 3}{7}{section*.10}}
\@writefile{lof}{\contentsline {figure}{\numberline {3}{\ignorespaces Test nr 3\relax }}{7}{figure.caption.11}}
\@writefile{toc}{\contentsline {paragraph}{Test 4}{7}{section*.12}}
\@writefile{lof}{\contentsline {figure}{\numberline {4}{\ignorespaces Test nr 4\relax }}{8}{figure.caption.13}}
\@writefile{toc}{\contentsline {paragraph}{Test 5}{8}{section*.14}}
\@writefile{lof}{\contentsline {figure}{\numberline {5}{\ignorespaces Test nr 5\relax }}{8}{figure.caption.15}}
\@writefile{toc}{\contentsline {subsection}{\numberline {5.3}Testy na u\IeC {\.z}ytkownikach}{8}{subsection.5.3}}
\newlabel{LastPage}{{}{8}{}{page.8}{}}
\xdef\lastpage@lastpage{8}
\xdef\lastpage@lastpageHy{8}
