\relax 
\providecommand\hyper@newdestlabel[2]{}
\catcode `"\active 
\providecommand\HyperFirstAtBeginDocument{\AtBeginDocument}
\HyperFirstAtBeginDocument{\ifx\hyper@anchor\@undefined
\global\let\oldcontentsline\contentsline
\gdef\contentsline#1#2#3#4{\oldcontentsline{#1}{#2}{#3}}
\global\let\oldnewlabel\newlabel
\gdef\newlabel#1#2{\newlabelxx{#1}#2}
\gdef\newlabelxx#1#2#3#4#5#6{\oldnewlabel{#1}{{#2}{#3}}}
\AtEndDocument{\ifx\hyper@anchor\@undefined
\let\contentsline\oldcontentsline
\let\newlabel\oldnewlabel
\fi}
\fi}
\global\let\hyper@last\relax 
\gdef\HyperFirstAtBeginDocument#1{#1}
\providecommand\HyField@AuxAddToFields[1]{}
\providecommand\HyField@AuxAddToCoFields[2]{}
\providecommand \oddpage@label [2]{}
\select@language{polish}
\@writefile{toc}{\select@language{polish}}
\@writefile{lof}{\select@language{polish}}
\@writefile{lot}{\select@language{polish}}
\@writefile{toc}{\contentsline {section}{\numberline {1}Wst\IeC {\k e}p}{2}{section.1}}
\@writefile{toc}{\contentsline {section}{\numberline {2}Analiza biznesowa}{2}{section.2}}
\@writefile{toc}{\contentsline {subsection}{\numberline {2.1}S\IeC {\l }ownik poj\IeC {\k e}\IeC {\'c}}{2}{subsection.2.1}}
\@writefile{toc}{\contentsline {subsection}{\numberline {2.2}Wymagania funkcjonalne}{3}{subsection.2.2}}
\@writefile{lof}{\contentsline {figure}{\numberline {1}{\ignorespaces Diagram przypadk\IeC {\'o}w u\IeC {\.z}ycia}}{4}{figure.1}}
\@writefile{toc}{\contentsline {subsection}{\numberline {2.3}Wymagania niefunkjonalne}{4}{subsection.2.3}}
\@writefile{toc}{\contentsline {section}{\numberline {3}Harmonogram}{5}{section.3}}
\@writefile{toc}{\contentsline {subsection}{\numberline {3.1}Przegl\IeC {\k a}d etap\IeC {\'o}w projektu}{5}{subsection.3.1}}
\@writefile{lot}{\contentsline {table}{\numberline {1}{\ignorespaces Etapy tworzenia projektu}}{5}{table.1}}
\@writefile{toc}{\contentsline {subsection}{\numberline {3.2}Etap 0}{5}{subsection.3.2}}
\@writefile{toc}{\contentsline {subsection}{\numberline {3.3}Etap 1}{5}{subsection.3.3}}
\newlabel{RF1}{6}
\@writefile{lof}{\contentsline {figure}{\numberline {2}{\ignorespaces Wykres Gantta}}{6}{figure.2}}
\newlabel{Rycina}{{2}{6}{Wykres Gantta}{figure.2}{}}
\@writefile{toc}{\contentsline {subsection}{\numberline {3.4}Etap 2}{7}{subsection.3.4}}
\@writefile{toc}{\contentsline {subsection}{\numberline {3.5}Etap 3}{7}{subsection.3.5}}
\@writefile{toc}{\contentsline {subsection}{\numberline {3.6}Etap 4}{7}{subsection.3.6}}
\newlabel{LastPage}{{}{7}{}{page.7}{}}
\xdef\lastpage@lastpage{7}
\xdef\lastpage@lastpageHy{7}
