\select@language {polish}
\contentsline {section}{\numberline {1}Wst\IeC {\k e}p}{2}{section.1}
\contentsline {section}{\numberline {2}Analiza biznesowa}{2}{section.2}
\contentsline {subsection}{\numberline {2.1}S\IeC {\l }ownik poj\IeC {\k e}\IeC {\'c}}{2}{subsection.2.1}
\contentsline {subsection}{\numberline {2.2}Wymagania funkcjonalne}{3}{subsection.2.2}
\contentsline {subsection}{\numberline {2.3}Wymagania niefunkjonalne}{4}{subsection.2.3}
\contentsline {section}{\numberline {3}Harmonogram}{5}{section.3}
\contentsline {subsection}{\numberline {3.1}Przegl\IeC {\k a}d etap\IeC {\'o}w projektu}{5}{subsection.3.1}
\contentsline {subsection}{\numberline {3.2}Etap 0}{5}{subsection.3.2}
\contentsline {subsection}{\numberline {3.3}Etap 1}{5}{subsection.3.3}
\contentsline {subsection}{\numberline {3.4}Etap 2}{7}{subsection.3.4}
\contentsline {subsection}{\numberline {3.5}Etap 3}{7}{subsection.3.5}
\contentsline {subsection}{\numberline {3.6}Etap 4}{7}{subsection.3.6}
