\relax 
\providecommand\hyper@newdestlabel[2]{}
\catcode `"\active 
\providecommand\HyperFirstAtBeginDocument{\AtBeginDocument}
\HyperFirstAtBeginDocument{\ifx\hyper@anchor\@undefined
\global\let\oldcontentsline\contentsline
\gdef\contentsline#1#2#3#4{\oldcontentsline{#1}{#2}{#3}}
\global\let\oldnewlabel\newlabel
\gdef\newlabel#1#2{\newlabelxx{#1}#2}
\gdef\newlabelxx#1#2#3#4#5#6{\oldnewlabel{#1}{{#2}{#3}}}
\AtEndDocument{\ifx\hyper@anchor\@undefined
\let\contentsline\oldcontentsline
\let\newlabel\oldnewlabel
\fi}
\fi}
\global\let\hyper@last\relax 
\gdef\HyperFirstAtBeginDocument#1{#1}
\providecommand\HyField@AuxAddToFields[1]{}
\providecommand\HyField@AuxAddToCoFields[2]{}
\providecommand \oddpage@label [2]{}
\select@language{polish}
\@writefile{toc}{\select@language{polish}}
\@writefile{lof}{\select@language{polish}}
\@writefile{lot}{\select@language{polish}}
\@writefile{toc}{\contentsline {section}{\numberline {1}Wst\IeC {\k e}p}{2}{section.1}}
\@writefile{toc}{\contentsline {subsection}{\numberline {1.1}S\IeC {\l }ownik poj\IeC {\k e}\IeC {\'c}}{3}{subsection.1.1}}
\@writefile{toc}{\contentsline {section}{\numberline {2}Metodyka}{3}{section.2}}
\@writefile{toc}{\contentsline {subsection}{\numberline {2.1}Model wytw\IeC {\'o}rczy}{3}{subsection.2.1}}
\@writefile{toc}{\contentsline {subsection}{\numberline {2.2}\IeC {\'S}rodowisko programistyczne}{3}{subsection.2.2}}
\@writefile{toc}{\contentsline {section}{\numberline {3}Architektura}{4}{section.3}}
\@writefile{toc}{\contentsline {subsection}{\numberline {3.1}Wzorce projektowe i biblioteki}{4}{subsection.3.1}}
\@writefile{toc}{\contentsline {subsection}{\numberline {3.2}Struktura aplikacji}{4}{subsection.3.2}}
\@writefile{toc}{\contentsline {subsection}{\numberline {3.3}Modu\IeC {\l } parsera i modu\IeC {\l } wizualizacji}{4}{subsection.3.3}}
\@writefile{toc}{\contentsline {subsubsection}{\numberline {3.3.1}Struktura Options}{4}{subsubsection.3.3.1}}
\@writefile{toc}{\contentsline {subsubsection}{\numberline {3.3.2}ParserObject}{4}{subsubsection.3.3.2}}
\newlabel{RF1}{5}
\@writefile{lof}{\contentsline {figure}{\numberline {1}{\ignorespaces Diagram klas\relax }}{5}{figure.caption.4}}
\@writefile{toc}{\contentsline {subsubsection}{\numberline {3.3.3}Parser}{6}{subsubsection.3.3.3}}
\@writefile{toc}{\contentsline {subsection}{\numberline {3.4}Schemat komunikacji mi\IeC {\k e}dzy modu\IeC {\l }ami}{6}{subsection.3.4}}
\@writefile{toc}{\contentsline {section}{\numberline {4}Serwer}{6}{section.4}}
\@writefile{toc}{\contentsline {subsection}{\numberline {4.1}Zapis danych}{6}{subsection.4.1}}
\@writefile{lof}{\contentsline {figure}{\numberline {2}{\ignorespaces Diagram aktywno\IeC {\'s}ci\relax }}{7}{figure.caption.5}}
\@writefile{toc}{\contentsline {subsection}{\numberline {4.2}Zapytania Http}{8}{subsection.4.2}}
\@writefile{toc}{\contentsline {section}{\numberline {5}Interfejs u\IeC {\.z}ytkownika}{8}{section.5}}
\@writefile{toc}{\contentsline {subsection}{\numberline {5.1}Widok g\IeC {\l }\IeC {\'o}wny}{8}{subsection.5.1}}
\@writefile{lof}{\contentsline {figure}{\numberline {3}{\ignorespaces Fragment g\IeC {\l }\IeC {\'o}wnego widoku opisu struktury wizualizowanej\relax }}{9}{figure.caption.6}}
\@writefile{lof}{\contentsline {figure}{\numberline {4}{\ignorespaces Fragment g\IeC {\l }\IeC {\'o}wnego widoku obrazu struktury wizualizowanej\relax }}{9}{figure.caption.7}}
\@writefile{lof}{\contentsline {figure}{\numberline {5}{\ignorespaces Fragment g\IeC {\l }\IeC {\'o}wnego widoku z funkcjonalno\IeC {\'s}ci\IeC {\k a} wgrywania obrazk\IeC {\'o}w\relax }}{10}{figure.caption.8}}
\@writefile{toc}{\contentsline {subsubsection}{\numberline {5.1.1}Widok poboczny}{10}{subsubsection.5.1.1}}
\@writefile{toc}{\contentsline {section}{\numberline {6}Parser i j\IeC {\k e}zyk parsera}{11}{section.6}}
\@writefile{toc}{\contentsline {subsection}{\numberline {6.1}Definicja j\IeC {\k e}zyka}{11}{subsection.6.1}}
\@writefile{toc}{\contentsline {subsection}{\numberline {6.2}Przyk\IeC {\l }ady zastosowania j\IeC {\k e}zyka}{12}{subsection.6.2}}
\@writefile{lof}{\contentsline {figure}{\numberline {6}{\ignorespaces [1 | 34 \textbackslash | 3 | -23]\relax }}{12}{figure.caption.9}}
\@writefile{lof}{\contentsline {figure}{\numberline {7}{\ignorespaces  [Ala > [ma | kota] | ale | nie ma | \{pies\}]  lub [Ala > ([ma | kota]) | ale | nie ma | \{pies\}],  gdzie \{pies\} zosta\IeC {\l } przedstawiony na Ryc. 9 \relax }}{12}{figure.caption.10}}
\@writefile{lof}{\contentsline {figure}{\numberline {8}{\ignorespaces [(Ala) > [ma | kota] | ale | nie ma | \{pies\}]\relax }}{13}{figure.caption.11}}
\@writefile{lof}{\contentsline {figure}{\numberline {9}{\ignorespaces pies\relax }}{13}{figure.caption.12}}
\@writefile{lof}{\contentsline {figure}{\numberline {10}{\ignorespaces   graph  \{  1>2  1-3  =  1: A  2: B  3: [\$\$1\$ C | \$1\$\$ D]  \}  \relax }}{14}{figure.caption.13}}
\newlabel{LastPage}{{}{14}{}{page.14}{}}
\xdef\lastpage@lastpage{14}
\xdef\lastpage@lastpageHy{14}
