\relax 
\providecommand\hyper@newdestlabel[2]{}
\catcode `"\active 
\providecommand\HyperFirstAtBeginDocument{\AtBeginDocument}
\HyperFirstAtBeginDocument{\ifx\hyper@anchor\@undefined
\global\let\oldcontentsline\contentsline
\gdef\contentsline#1#2#3#4{\oldcontentsline{#1}{#2}{#3}}
\global\let\oldnewlabel\newlabel
\gdef\newlabel#1#2{\newlabelxx{#1}#2}
\gdef\newlabelxx#1#2#3#4#5#6{\oldnewlabel{#1}{{#2}{#3}}}
\AtEndDocument{\ifx\hyper@anchor\@undefined
\let\contentsline\oldcontentsline
\let\newlabel\oldnewlabel
\fi}
\fi}
\global\let\hyper@last\relax 
\gdef\HyperFirstAtBeginDocument#1{#1}
\providecommand\HyField@AuxAddToFields[1]{}
\providecommand\HyField@AuxAddToCoFields[2]{}
\select@language{polish}
\@writefile{toc}{\select@language{polish}}
\@writefile{lof}{\select@language{polish}}
\@writefile{lot}{\select@language{polish}}
\select@language{polish}
\@writefile{toc}{\select@language{polish}}
\@writefile{lof}{\select@language{polish}}
\@writefile{lot}{\select@language{polish}}
\select@language{english}
\@writefile{toc}{\select@language{english}}
\@writefile{lof}{\select@language{english}}
\@writefile{lot}{\select@language{english}}
\select@language{polish}
\@writefile{toc}{\select@language{polish}}
\@writefile{lof}{\select@language{polish}}
\@writefile{lot}{\select@language{polish}}
\citation{yUML}
\@writefile{toc}{\contentsline {chapter}{Wst\IeC {\k e}p}{9}{section*.1}}
\@writefile{toc}{\contentsline {chapter}{\numberline {1}Analiza biznesowa}{11}{chapter.1}}
\@writefile{lof}{\addvspace {10\p@ }}
\@writefile{lot}{\addvspace {10\p@ }}
\@writefile{toc}{\contentsline {section}{\numberline {1.1}Wymagania funkcjonalne}{11}{section.1.1}}
\newlabel{sec:wymagania_funkcjonalne}{{1.1}{11}{Wymagania funkcjonalne}{section.1.1}{}}
\@writefile{lof}{\contentsline {figure}{\numberline {1.1}{\ignorespaces Diagram przypadk\IeC {\'o}w u\IeC {\.z}ycia}}{12}{figure.caption.2}}
\providecommand*\caption@xref[2]{\@setref\relax\@undefined{#1}}
\newlabel{fig:usecases}{{1.1}{12}{Diagram przypadków użycia}{figure.caption.2}{}}
\@writefile{toc}{\contentsline {section}{\numberline {1.2}User Stories}{12}{section.1.2}}
\newlabel{sec:user_stories}{{1.2}{12}{User Stories}{section.1.2}{}}
\@writefile{toc}{\contentsline {section}{\numberline {1.3}Dost\IeC {\k e}pne aplikacje}{13}{section.1.3}}
\newlabel{sec:porownanie_aplikacji}{{1.3}{13}{Dostępne aplikacje}{section.1.3}{}}
\@writefile{toc}{\contentsline {subsection}{\numberline {1.3.1}Grafika rastrowa a wektorowa}{15}{subsection.1.3.1}}
\newlabel{sec:grafiki}{{1.3.1}{15}{Grafika rastrowa a wektorowa}{subsection.1.3.1}{}}
\@writefile{toc}{\contentsline {chapter}{\numberline {2}Analiza techniczna}{16}{chapter.2}}
\@writefile{lof}{\addvspace {10\p@ }}
\@writefile{lot}{\addvspace {10\p@ }}
\@writefile{toc}{\contentsline {section}{\numberline {2.1}Model wytw\IeC {\'o}rczy}{16}{section.2.1}}
\@writefile{toc}{\contentsline {section}{\numberline {2.2}Specyfikacja techniczna}{16}{section.2.2}}
\@writefile{toc}{\contentsline {subsection}{\numberline {2.2.1}\IeC {\'S}rodowisko programistyczne}{16}{subsection.2.2.1}}
\newlabel{sec:srodowisko}{{2.2.1}{16}{Środowisko programistyczne}{subsection.2.2.1}{}}
\@writefile{toc}{\contentsline {subsection}{\numberline {2.2.2}Wymagania niefunkcjonalne}{17}{subsection.2.2.2}}
\@writefile{toc}{\contentsline {section}{\numberline {2.3}Wykorzystywane biblioteki}{17}{section.2.3}}
\@writefile{toc}{\contentsline {section}{\numberline {2.4}Wzorce projektowe}{17}{section.2.4}}
\citation{Canvas}
\@writefile{toc}{\contentsline {chapter}{\numberline {3}Opis aplikacji}{19}{chapter.3}}
\@writefile{lof}{\addvspace {10\p@ }}
\@writefile{lot}{\addvspace {10\p@ }}
\newlabel{RF1}{20}
\@writefile{lof}{\contentsline {figure}{\numberline {3.1}{\ignorespaces Diagram klas\relax }}{20}{figure.caption.3}}
\newlabel{fig:diagram_klas}{{3.1}{20}{Diagram klas\relax }{figure.caption.3}{}}
\@writefile{toc}{\contentsline {section}{\numberline {3.1}Schemat komunikacji pomi\IeC {\k e}dzy modu\IeC {\l }ami}{21}{section.3.1}}
\newlabel{sec:komunikacja}{{3.1}{21}{Schemat komunikacji pomiędzy modułami}{section.3.1}{}}
\@writefile{toc}{\contentsline {section}{\numberline {3.2}Strona internetowa}{21}{section.3.2}}
\newlabel{sec:strona}{{3.2}{21}{Strona internetowa}{section.3.2}{}}
\@writefile{toc}{\contentsline {subsection}{\numberline {3.2.1}Baza danych aplikacji}{21}{subsection.3.2.1}}
\@writefile{lof}{\contentsline {figure}{\numberline {3.2}{\ignorespaces Diagram aktywno\IeC {\'s}ci}}{22}{figure.caption.4}}
\newlabel{fig:diagram_aktywnosci}{{3.2}{22}{Diagram aktywności}{figure.caption.4}{}}
\@writefile{toc}{\contentsline {subsection}{\numberline {3.2.2}Widok przyk\IeC {\l }ad\IeC {\'o}w}{24}{subsection.3.2.2}}
\@writefile{toc}{\contentsline {subsection}{\numberline {3.2.3}Widok generatora}{24}{subsection.3.2.3}}
\@writefile{lof}{\contentsline {figure}{\numberline {3.3}{\ignorespaces Pocz\IeC {\k a}tkowy widok generatora\relax }}{25}{figure.caption.5}}
\newlabel{fig:view1}{{3.3}{25}{Początkowy widok generatora\relax }{figure.caption.5}{}}
\@writefile{lof}{\contentsline {figure}{\numberline {3.4}{\ignorespaces Panel do wgrywania plik\IeC {\'o}w graficznych\relax }}{26}{figure.caption.6}}
\newlabel{fig:overlay-photos}{{3.4}{26}{Panel do wgrywania plików graficznych\relax }{figure.caption.6}{}}
\@writefile{lof}{\contentsline {figure}{\numberline {3.5}{\ignorespaces Wygenerowanie unikalnego linku\relax }}{26}{figure.caption.7}}
\newlabel{fig:link_view}{{3.5}{26}{Wygenerowanie unikalnego linku\relax }{figure.caption.7}{}}
\@writefile{toc}{\contentsline {subsection}{\numberline {3.2.4}Instrukcja U\IeC {\.z}ytkownika}{27}{subsection.3.2.4}}
\newlabel{subsec:instrukcja}{{3.2.4}{27}{Instrukcja Użytkownika}{subsection.3.2.4}{}}
\@writefile{lof}{\contentsline {figure}{\numberline {3.6}{\ignorespaces Widok generatora z ponumerowanymi elementami interfejsu\relax }}{27}{figure.caption.8}}
\newlabel{fig:view2}{{3.6}{27}{Widok generatora z ponumerowanymi elementami interfejsu\relax }{figure.caption.8}{}}
\@writefile{lof}{\contentsline {figure}{\numberline {3.7}{\ignorespaces Panel styli\relax }}{28}{figure.caption.9}}
\newlabel{fig:style}{{3.7}{28}{Panel styli\relax }{figure.caption.9}{}}
\@writefile{toc}{\contentsline {subsection}{\numberline {3.2.5}B\IeC {\l }\IeC {\k e}dy}{29}{subsection.3.2.5}}
\@writefile{lof}{\contentsline {figure}{\numberline {3.8}{\ignorespaces Komunikat o b\IeC {\l }\IeC {\k e}dzie\relax }}{30}{figure.caption.10}}
\@writefile{toc}{\contentsline {section}{\numberline {3.3}Modu\IeC {\l } wizualizacji}{30}{section.3.3}}
\@writefile{toc}{\contentsline {subsection}{\numberline {3.3.1}Zasady wizualizacji}{30}{subsection.3.3.1}}
\@writefile{toc}{\contentsline {subsection}{\numberline {3.3.2}Obrazki}{31}{subsection.3.3.2}}
\@writefile{toc}{\contentsline {subsection}{\numberline {3.3.3}Tablice}{31}{subsection.3.3.3}}
\@writefile{toc}{\contentsline {subsection}{\numberline {3.3.4}Tablice haszuj\IeC {\k a}ce}{31}{subsection.3.3.4}}
\@writefile{toc}{\contentsline {subsection}{\numberline {3.3.5}Grafy}{32}{subsection.3.3.5}}
\newlabel{sec:grafy}{{3.3.5}{32}{Grafy}{subsection.3.3.5}{}}
\@writefile{toc}{\contentsline {subsection}{\numberline {3.3.6}Drzewa}{33}{subsection.3.3.6}}
\newlabel{sec:drzewa}{{3.3.6}{33}{Drzewa}{subsection.3.3.6}{}}
\@writefile{lof}{\contentsline {figure}{\numberline {3.9}{\ignorespaces Interpretacje definicji drzewa o tych samych wierzcho\IeC {\l }kach i kraw\IeC {\k e}dziach.\relax }}{34}{figure.caption.11}}
\newlabel{fig:dInter}{{3.9}{34}{Interpretacje definicji drzewa o tych samych wierzchołkach i krawędziach.\relax }{figure.caption.11}{}}
\@writefile{toc}{\contentsline {subsection}{\numberline {3.3.7}Wektory}{34}{subsection.3.3.7}}
\@writefile{toc}{\contentsline {section}{\numberline {3.4}Parser}{34}{section.3.4}}
\@writefile{toc}{\contentsline {subsection}{\numberline {3.4.1}Definicja j\IeC {\k e}zyka do opisu struktur}{35}{subsection.3.4.1}}
\@writefile{toc}{\contentsline {subsection}{\numberline {3.4.2}Przyk\IeC {\l }ady wykorzystania j\IeC {\k e}zyka}{36}{subsection.3.4.2}}
\newlabel{sec:dwa_przyklady}{{3.4.2}{36}{Przykłady wykorzystania języka}{subsection.3.4.2}{}}
\@writefile{lof}{\contentsline {figure}{\numberline {3.10}{\ignorespaces Wizualizacja dla [ < . 1 >\{pies\}| [[[\IeC {\'s}rodek|tablicy]]]| < 1 .> Ali ] \relax }}{36}{figure.caption.12}}
\newlabel{fig:przyklad1}{{3.10}{36}{Wizualizacja dla [ < . 1 >\{pies\}| [[[środek|tablicy]]]| < 1 .> Ali ] \relax }{figure.caption.12}{}}
\@writefile{lof}{\contentsline {figure}{\numberline {3.11}{\ignorespaces Wizualizacja dla tree\{ 1:\{Ala\} ; 2: kot; 3:[psa]; =; 1->2:ma; 1->3:nie ma;\}\relax }}{37}{figure.caption.13}}
\newlabel{fig:przyklad2}{{3.11}{37}{Wizualizacja dla tree\{ 1:\{Ala\} ; 2: kot; 3:[psa]; =; 1->2:ma; 1->3:nie ma;\}\relax }{figure.caption.13}{}}
\@writefile{toc}{\contentsline {section}{\numberline {3.5}Pozosta\IeC {\l }e modu\IeC {\l }y}{38}{section.3.5}}
\@writefile{toc}{\contentsline {subsection}{\numberline {3.5.1}Modu\IeC {\l } pomocniczy}{38}{subsection.3.5.1}}
\@writefile{toc}{\contentsline {subsection}{\numberline {3.5.2}Model}{38}{subsection.3.5.2}}
\@writefile{toc}{\contentsline {subsection}{\numberline {3.5.3}Modu\IeC {\l } test\IeC {\'o}w}{38}{subsection.3.5.3}}
\newlabel{sec:modul_testow}{{3.5.3}{38}{Moduł testów}{subsection.3.5.3}{}}
\@writefile{toc}{\contentsline {chapter}{\numberline {4}Testy}{40}{chapter.4}}
\@writefile{lof}{\addvspace {10\p@ }}
\@writefile{lot}{\addvspace {10\p@ }}
\@writefile{toc}{\contentsline {section}{\numberline {4.1}Testy akceptacyjne}{40}{section.4.1}}
\newlabel{sec:testy_akceptacyjne}{{4.1}{40}{Testy akceptacyjne}{section.4.1}{}}
\@writefile{toc}{\contentsline {section}{\numberline {4.2}Testy na u\IeC {\.z}ytkownikach}{42}{section.4.2}}
\@writefile{toc}{\contentsline {chapter}{\numberline {5}Podsumowanie}{44}{chapter.5}}
\@writefile{lof}{\addvspace {10\p@ }}
\@writefile{lot}{\addvspace {10\p@ }}
\@writefile{toc}{\contentsline {section}{\numberline {5.1}Mo\IeC {\.z}liwo\IeC {\'s}ci rozwoju}{44}{section.5.1}}
\@writefile{toc}{\contentsline {chapter}{\numberline {A}Podzia\IeC {\l } pracy}{46}{appendix.A}}
\@writefile{lof}{\addvspace {10\p@ }}
\@writefile{lot}{\addvspace {10\p@ }}
\newlabel{ch:podzial}{{A}{46}{Podział pracy}{appendix.A}{}}
\@writefile{toc}{\contentsline {section}{\numberline {A.1}Podzia\IeC {\l } pracy przy dokumentacji}{46}{section.A.1}}
\@writefile{toc}{\contentsline {subsection}{\numberline {A.1.1}Anna Kosiorek}{46}{subsection.A.1.1}}
\@writefile{toc}{\contentsline {subsection}{\numberline {A.1.2}Patrycja Kukla}{46}{subsection.A.1.2}}
\@writefile{toc}{\contentsline {section}{\numberline {A.2}Podzia\IeC {\l } pracy przy implementacji}{47}{section.A.2}}
\@writefile{toc}{\contentsline {subsection}{\numberline {A.2.1}Anna Kosiorek}{47}{subsection.A.2.1}}
\@writefile{toc}{\contentsline {subsection}{\numberline {A.2.2}Patrycja Kukla}{47}{subsection.A.2.2}}
\@writefile{toc}{\contentsline {chapter}{\numberline {B}S\IeC {\l }ownik poj\IeC {\k e}\IeC {\'c}}{48}{appendix.B}}
\@writefile{lof}{\addvspace {10\p@ }}
\@writefile{lot}{\addvspace {10\p@ }}
\newlabel{itm:base}{{1}{48}{Słownik pojęć}{Item.53}{}}
\@writefile{toc}{\contentsline {chapter}{\numberline {C}Przyk\IeC {\l }ady u\IeC {\.z}ycia j\IeC {\k e}zyka}{50}{appendix.C}}
\@writefile{lof}{\addvspace {10\p@ }}
\@writefile{lot}{\addvspace {10\p@ }}
\newlabel{ch:przyklady}{{C}{50}{Przykłady użycia języka}{appendix.C}{}}
\@writefile{lof}{\contentsline {figure}{\numberline {C.1}{\ignorespaces Wizualizacja dla Ala ma kota (trzy oddzielne obiekty oddzielone marginesem) \relax }}{50}{figure.caption.14}}
\@writefile{lof}{\contentsline {figure}{\numberline {C.2}{\ignorespaces Wizualizacja dla ``Ala ma kota'' (jeden obiekt, wyrazy oddzielone spacj\IeC {\k a}) \relax }}{50}{figure.caption.15}}
\@writefile{lof}{\contentsline {figure}{\numberline {C.3}{\ignorespaces Wizualizacja dla ``< . 1 > \textbackslash \textbackslash \textbackslash " tree{}'' \relax }}{50}{figure.caption.16}}
\@writefile{lof}{\contentsline {figure}{\numberline {C.4}{\ignorespaces Wizualizacja dla \textbackslash [ \textbackslash | \textbackslash ]\relax }}{50}{figure.caption.17}}
\@writefile{lof}{\contentsline {figure}{\numberline {C.5}{\ignorespaces Wizualizacja dla Ala ma \{pies\} \relax }}{50}{figure.caption.18}}
\@writefile{lof}{\contentsline {figure}{\numberline {C.6}{\ignorespaces Wizualizacja dla [ | | ]\relax }}{50}{figure.caption.19}}
\@writefile{lof}{\contentsline {figure}{\numberline {C.7}{\ignorespaces Wizualizacja dla [ Ala | ma | kota ] \relax }}{51}{figure.caption.20}}
\@writefile{lof}{\contentsline {figure}{\numberline {C.8}{\ignorespaces Wizualizacja dla [ Ala | ma | kota Mruczka [ ale | | nie | | ma psa ] ]\relax }}{51}{figure.caption.21}}
\@writefile{lof}{\contentsline {figure}{\numberline {C.9}{\ignorespaces Wizualizacja dla [ Ala > [ nie | ma | psa ] | ma | kota ]\relax }}{51}{figure.caption.22}}
\@writefile{lof}{\contentsline {figure}{\numberline {C.10}{\ignorespaces Wizualizacja dla [ ( Ala ) > [ nie | ma | psa ] | ma | kota ] \relax }}{51}{figure.caption.23}}
\@writefile{lof}{\contentsline {figure}{\numberline {C.11}{\ignorespaces Wizualizacja dla [ 1 > 2 | ( 3 ) > 4 | ( 5 ) > 6 | 7 > 8 | 9 > 10 ] \relax }}{52}{figure.caption.24}}
\@writefile{lof}{\contentsline {figure}{\numberline {C.12}{\ignorespaces Wizualizacja dla [ < 2 . > | | < . 2 : dwa > ] \relax }}{52}{figure.caption.25}}
\@writefile{lof}{\contentsline {figure}{\numberline {C.13}{\ignorespaces Wizualizacja dla [ < 2 . >start | | < . 2 : dwa > koniec wektora] \relax }}{52}{figure.caption.26}}
\@writefile{lof}{\contentsline {figure}{\numberline {C.14}{\ignorespaces Wizualizacja dla < 2 . >koniec wektora < . 2 : dwa > start \relax }}{52}{figure.caption.27}}
\@writefile{lof}{\contentsline {figure}{\numberline {C.15}{\ignorespaces Wizualizacja dla < 2 . >a < . 1 > b < . 2 : dwa> c < 1. > d\relax }}{53}{figure.caption.28}}
\@writefile{lof}{\contentsline {figure}{\numberline {C.16}{\ignorespaces Wizualizacja dla [ < 2 . > a | | < . 2 : dwa > b ] < . 1 > c < 1 . > d \relax }}{53}{figure.caption.29}}
\@writefile{lof}{\contentsline {figure}{\numberline {C.17}{\ignorespaces Wizualizacja dla tree\{ 1:1 ; 2:2; 3:3; 4:4; 5:5; 6:6; 7:7; 8:8; =; 1-2; 1-3; 2-4; 2-5; 3-6; 3-7; 4-8;\} \relax }}{53}{figure.caption.30}}
\@writefile{lof}{\contentsline {figure}{\numberline {C.18}{\ignorespaces Wizualizacja dla tree\{ 1:Ala ; 2:kota; 3:psa; =; 1->2:ma; 1->3:nie;\} \relax }}{53}{figure.caption.31}}
\@writefile{lof}{\contentsline {figure}{\numberline {C.19}{\ignorespaces Wizualizacja dla graph\{ 1:Warszawa ; 2:Gda\IeC {\'n}sk; 3:Krak\IeC {\'o}w; =; 1-2:283 km; 1-3:252 km; 2-3: 485 km;\} \relax }}{54}{figure.caption.32}}
\@writefile{toc}{\contentsline {chapter}{\numberline {D}Testy}{55}{appendix.D}}
\@writefile{lof}{\addvspace {10\p@ }}
\@writefile{lot}{\addvspace {10\p@ }}
\@writefile{lof}{\contentsline {figure}{\numberline {D.1}{\ignorespaces Test nr 1\relax }}{55}{figure.caption.33}}
\newlabel{fig:test1}{{D.1}{55}{Test nr 1\relax }{figure.caption.33}{}}
\@writefile{lof}{\contentsline {figure}{\numberline {D.2}{\ignorespaces Test nr 2\relax }}{55}{figure.caption.34}}
\newlabel{fig:test2}{{D.2}{55}{Test nr 2\relax }{figure.caption.34}{}}
\@writefile{lof}{\contentsline {figure}{\numberline {D.3}{\ignorespaces Test nr 3\relax }}{56}{figure.caption.35}}
\newlabel{fig:test3}{{D.3}{56}{Test nr 3\relax }{figure.caption.35}{}}
\@writefile{lof}{\contentsline {figure}{\numberline {D.4}{\ignorespaces Test nr 4\relax }}{56}{figure.caption.36}}
\newlabel{fig:test4}{{D.4}{56}{Test nr 4\relax }{figure.caption.36}{}}
\@writefile{lof}{\contentsline {figure}{\numberline {D.5}{\ignorespaces Test nr 5\relax }}{56}{figure.caption.37}}
\newlabel{fig:test5}{{D.5}{56}{Test nr 5\relax }{figure.caption.37}{}}
\@writefile{lof}{\contentsline {figure}{\numberline {D.6}{\ignorespaces Test nr 6\relax }}{57}{figure.caption.38}}
\newlabel{fig:test6}{{D.6}{57}{Test nr 6\relax }{figure.caption.38}{}}
\bibcite{struct}{1}
\bibcite{mvc}{2}
\bibcite{grafika kom}{3}
\bibcite{gimp}{4}
\bibcite{visio}{5}
\bibcite{c6}{6}
\bibcite{cmvc}{7}
\bibcite{graphviz as library}{8}
\bibcite{json}{9}
\bibcite{quickgraph}{10}
\bibcite{Canvas}{11}
\bibcite{zejscia}{12}
\bibcite{yUML}{13}
\bibcite{graphviz}{14}
\@writefile{toc}{\contentsline {chapter}{Bibliografia}{58}{section*.39}}
\@writefile{toc}{\contentsline {chapter}{Spis rysunk\'ow}{59}{section*.40}}
\ttl@finishall
